{
  "parts": [
    {
      "name": "main",
      "client_hooks": {
        "documentReady": "ep_srt/static/js/index:documentReady",
        "postAceInit": "ep_srt/static/js/index",
        "aceEditorCSS": "ep_srt/static/js/index",
        "aceGetFilterStack": "ep_srt/static/js/index:aceGetFilterStack",
        "aceCreateDomLine": "ep_srt/static/js/index:aceCreateDomLine",
        "aceKeyEvent": "ep_srt/static/js/index:aceKeyEvent"
      }
    }
  ]
}
